…
This image is 950 pixels wide and 181 pixels high.

Turning the image into a data table is easy enough, in this case I will turn it into a tibble - the tidyverse class for storing a data frame - which is faster than as.data.frame() used in base R.

#' Turn the kymograph tif into a tibble
kymo_data <- as_tibble(kymograph)
#' Take a quick peek
kymo_data

## # A tibble: 950 x 181
##       V1    V2    V3    V4    V5    V6    V7    V8    V9   V10   V11   V12
##    <dbl> <dbl> <dbl> <dbl> <dbl> <dbl> <dbl> <dbl> <dbl> <dbl> <dbl> <dbl>
##  1 0.228 0.153 0.253 0.195 0.215 0.308 0.251 0.322 0.277 0.258 0.185 0.278
##  2 0.195 0.165 0.238 0.190 0.230 0.284 0.234 0.273 0.232 0.252 0.189 0.257
##  3 0.178 0.195 0.201 0.178 0.205 0.277 0.213 0.241 0.230 0.251 0.178 0.242
##  4 0.165 0.192 0.157 0.212 0.173 0.292 0.199 0.228 0.195 0.253 0.232 0.273
##  5 0.160 0.205 0.153 0.182 0.130 0.282 0.190 0.231 0.166 0.232 0.256 0.315
##  6 0.161 0.246 0.188 0.181 0.137 0.244 0.196 0.228 0.153 0.235 0.275 0.312
##  7 0.166 0.247 0.199 0.170 0.152 0.187 0.216 0.250 0.161 0.259 0.221 0.295
##  8 0.187 0.201 0.174 0.182 0.164 0.179 0.237 0.263 0.190 0.301 0.229 0.272
##  9 0.195 0.160 0.156 0.185 0.180 0.200 0.253 0.244 0.193 0.301 0.208 0.237
## 10 0.175 0.139 0.148 0.192 0.191 0.193 0.258 0.237 0.186 0.251 0.171 0.263
## # ... with 940 more rows, and 169 more variables: V13 <dbl>, V14 <dbl>,
## #   V15 <dbl>, V16 <dbl>, V17 <dbl>, V18 <dbl>, V19 <dbl>, V20 <dbl>,
## #   V21 <dbl>, V22 <dbl>, V23 <dbl>, V24 <dbl>, V25 <dbl>, V26 <dbl>,
## #   V27 <dbl>, V28 <dbl>, V29 <dbl>, V30 <dbl>, V31 <dbl>, V32 <dbl>,
## #   V33 <dbl>, V34 <dbl>, V35 <dbl>, V36 <dbl>, V37 <dbl>, V38 <dbl>,
## #   V39 <dbl>, V40 <dbl>, V41 <dbl>, V42 <dbl>, V43 <dbl>, V44 <dbl>,
## #   V45 <dbl>, V46 <dbl>, V47 <dbl>, V48 <dbl>, V49 <dbl>, V50 <dbl>,
## #   V51 <dbl>, V52 <dbl>, V53 <dbl>, V54 <dbl>, V55 <dbl>, V56 <dbl>,
## #   V57 <dbl>, V58 <dbl>, V59 <dbl>, V60 <dbl>, V61 <dbl>, V62 <dbl>,
…
The one thing this tibble isn’t at present is tidy. Each pixel in the original image has it’s grey value represented in the table, but if you mixed up the rows and the columns you would have no way of knowing what the position of any one pixel had been in x and y. Tidy data demands that not only does the row contain your grey value, it also contains the position in x and y. How do we do that?

First things first, I need to add a column that describes explicitly what the row number currently means - the position along the x axis in the image. There are many ways to add a column. You can use the $ in base R or the mutate() function from dplyr: kymo_data$Pixel_position <- 1:nrow(kymo_data) or kymo_data <- mutate(kymo_data, Pixel_position = 1:nrow(kymo_data))

These are both fine, except that they both append a column to the end of the table. In order to be able to fully automate the process of import and conversion, I want to specify the position of the column in the table and have it be the first column. This is because the next operation is to reshape the data so that the column names become a new column describing the position on the y axis, and this is much easier if I can tell the reshaping function to act on every column after the first with the description 2:last column, where the last column is the same as the number of columns in the table using ncol. The add_column function from the tibble package lets me do this with the .before command. The gather command from the tidyr package then reshapes the data. If we take a peek at the table after this it looks totally different.

#' Add a column describing the pixel number as the first colum in the table
kymo_data <- add_column(kymo_data, Pixel_position = 1:nrow(kymo_data), .before = 1)

#' Reshape the table so intensity values are in one column (this is why I put the `Pixel` column first)
kymo_data <- gather(kymo_data, 2:ncol(kymo_data), key = "Time_point", value = "Intensity")
kymo_data

## # A tibble: 171,950 x 3
##    Pixel_position Time_point Intensity
##             <int> <chr>          <dbl>
##  1              1 V1             0.228
##  2              2 V1             0.195
##  3              3 V1             0.178
##  4              4 V1             0.165
##  5              5 V1             0.160
##  6              6 V1             0.161
##  7              7 V1             0.166
##  8              8 V1             0.187
##  9              9 V1             0.195
## 10             10 V1             0.175
## # ... with 171,940 more rows
…
## [1] TRUE

#' Now turn the factors into numbers
kymo_data$Time_point <- as.numeric(kymo_data$Time_point)
is.numeric(kymo_data$Time_point)

## [1] TRUE

kymo_data

## # A tibble: 171,950 x 3
##    Pixel_position Time_point Intensity
##             <int>      <dbl>     <dbl>
##  1              1         1.     0.228
##  2              2         1.     0.195
##  3              3         1.     0.178
##  4              4         1.     0.165
##  5              5         1.     0.160
##  6              6         1.     0.161
##  7              7         1.     0.166
##  8              8         1.     0.187
##  9              9         1.     0.195
## 10             10         1.     0.175
## # ... with 171,940 more rows
…
